<?xml version="1.0" encoding="UTF-8" standalone="no"?>
<!-- Uploaded to: SVG Repo, www.svgrepo.com, Generator: SVG Repo Mixer Tools -->

<svg
   xmlns:dc="http://purl.org/dc/elements/1.1/"
   xmlns:cc="http://creativecommons.org/ns#"
   xmlns:rdf="http://www.w3.org/1999/02/22-rdf-syntax-ns#"
   xmlns:svg="http://www.w3.org/2000/svg"
   xmlns="http://www.w3.org/2000/svg"
   xmlns:sodipodi="http://sodipodi.sourceforge.net/DTD/sodipodi-0.dtd"
   xmlns:inkscape="http://www.inkscape.org/namespaces/inkscape"
   height="800"
   width="800"
   version="1.1"
   id="Layer_1"
   viewBox="0 0 512 512"
   xml:space="preserve"
   sodipodi:docname="rgpd.svg"
   inkscape:version="0.92.5 (2060ec1f9f, 2020-04-08)"><metadata
   id="metadata17"><rdf:RDF><cc:Work
       rdf:about=""><dc:format>image/svg+xml</dc:format><dc:type
         rdf:resource="http://purl.org/dc/dcmitype/StillImage" /><dc:title></dc:title></cc:Work></rdf:RDF></metadata><defs
   id="defs15" /><sodipodi:namedview
   pagecolor="#ffffff"
   bordercolor="#666666"
   borderopacity="1"
   objecttolerance="10"
   gridtolerance="10"
   guidetolerance="10"
   inkscape:pageopacity="0"
   inkscape:pageshadow="2"
   inkscape:window-width="1638"
   inkscape:window-height="1001"
   id="namedview13"
   showgrid="false"
   fit-margin-top="0"
   fit-margin-left="0"
   fit-margin-right="0"
   fit-margin-bottom="0"
   inkscape:zoom="0.2085965"
   inkscape:cx="-1344.7128"
   inkscape:cy="-475.08392"
   inkscape:window-x="42"
   inkscape:window-y="25"
   inkscape:window-maximized="1"
   inkscape:current-layer="Layer_1" />
<path
   style="fill:#feaf50"
   d="M 255.99976,512 C -4.9002451,412.338 3.2847551,140.287 16.199755,38.83 19.026755,16.619 37.966755,0 60.356755,0 h 195.643005 195.643 c 22.39,0 41.33,16.619 44.157,38.83 12.916,101.457 21.101,373.508 -239.8,473.17 z"
   id="path2"
   inkscape:connector-curvature="0" />
<path
   style="fill:#fe9443"
   d="M 255.99976,512 V 0 h 195.643 c 22.39,0 41.33,16.619 44.157,38.83 12.916,101.457 21.101,373.508 -239.8,473.17 z"
   id="path4"
   inkscape:connector-curvature="0" />
<path
   style="fill:#fef184"
   d="M 80.305755,55.652 H 431.69376 c 5.758,0 10.555,4.387 11.086,10.12 9.436,101.955 1.243,301.341 -186.78,385.992 C 67.976755,367.113 59.783755,167.727 69.219755,65.772 c 0.531,-5.733 5.329,-10.12 11.086,-10.12 z"
   id="path6"
   inkscape:connector-curvature="0" />
<path
   style="fill:#fed76e"
   d="m 442.77976,65.772 c 9.436,101.955 1.243,301.341 -186.78,385.992 V 55.652 h 175.694 c 5.758,0 10.555,4.387 11.086,10.12 z"
   id="path8"
   inkscape:connector-curvature="0" />

<text
   xml:space="preserve"
   style="font-style:normal;font-variant:normal;font-weight:normal;font-stretch:normal;font-size:186.12121582px;line-height:1.25;font-family:Marianne;-inkscape-font-specification:Marianne;letter-spacing:0px;word-spacing:0px;fill:#004500;fill-opacity:1;stroke:none;stroke-width:6.34504128"
   x="135.58467"
   y="358.12155"
   id="text826"><tspan
     sodipodi:role="line"
     x="135.58467"
     y="358.12155"
     style="font-style:normal;font-variant:normal;font-weight:bold;font-stretch:normal;line-height:0.04;font-family:Marianne;-inkscape-font-specification:'Marianne Bold';fill:#004500;fill-opacity:1;stroke-width:6.34504128"
     id="tspan828">PD</tspan></text>

<text
   xml:space="preserve"
   style="font-style:normal;font-variant:normal;font-weight:normal;font-stretch:normal;font-size:186.12121582px;line-height:1.25;font-family:Marianne;-inkscape-font-specification:Marianne;letter-spacing:0px;word-spacing:0px;fill:#004500;fill-opacity:1;stroke:none;stroke-width:6.34504128"
   x="124.55469"
   y="195.37529"
   id="text826-3"><tspan
     sodipodi:role="line"
     x="124.55469"
     y="195.37529"
     style="font-style:normal;font-variant:normal;font-weight:bold;font-stretch:normal;line-height:0.04;font-family:Marianne;-inkscape-font-specification:'Marianne Bold';fill:#004500;fill-opacity:1;stroke-width:6.34504128"
     id="tspan828-7">RG</tspan></text>

</svg>